{
  "STS Adult Cardiac_v4.20.2": {
    "fields": {
      "ReadmPro": {
        "action_types": [
          "field_value_change"
        ],
        "field_value_change": {
          "from_field_type": "dropdown-with-fetch",
          "Cath lab for Valve Intervention": "100"
        }
      },
      "Resusc": {
        "action_types": [
          "field_value_change"
        ],
        "field_value_change": {
          "from_field_type": "dropdown-with-fetch",
          "Yes - Within 1 hour of the start of the procedure": "3",
          "Yes - More than 1 hour but less than 24 hours of the start of the procedure": "4",
          "No": "2"
        }
      },
      "AnesCareTeamMod": {
        "action_types": [
          "field_value_change"
        ],
        "field_value_change": {
          "from_field_type": "dropdown-with-fetch",
          "Attending anesthesiologist medically directing AA": "8"
        }
      },
      "TransfAlg": {
        "action_types": [
          "field_value_change"
        ],
        "field_value_change": {
          "from_field_type": "radio-group",
          "Yes": "4",
          "No": "3"
        }
      },
      "VSAVRepBioTy": {
        "action_types": [
          "field_value_change"
        ],
        "field_value_change": {
          "from_field_type": "radio-group",
          "Stented Valve Conduit": "3",
          "Stentless Valve Conduit": "4",
          "Stentless Biologic Full Root": "2"
        }
      }
    }
  }
}

