{
    "registry_program_name": "CATHPCI Cert",
    "registry_program_version": "v5.0",
    "dynamic_fields": {
        "ConcomProcType": {},
        "MVSupportDevice": {},
        "ClosureDevID": {},
        "ICDevID": {},
        "F_DevEventOccurred": {},
        "PCIIndication": {},
        "CathLabVisitIndication": {},
        "PreProcMedID": {
            "root_element": "list",
            "mapping": {
                "list_element_name": "listMember",
                "col_name": {
                    "code_system_name": "@codeSystemName",
                    "code_system_oid":  "@codeSystem",
                    "code": "@code",
                    "category": "category",
                    "display_name":  "@displayName",
                    "description":  "definition"
                },
                "default_col_data": {
                    "field_ref_conf": {"ref_field": "PROCINFO.index.PREPROCINFO.SetPreProcMedToNo", "if_val": null, "action": "enabled"}
                },
                "ref_dynamic_info": {
                    "field_ref_conf": {
                        "code_system_oid": "@codeSystem",
                        "code_system_name": "@codeSystemName",
                        "category": "category",
                        "display_name": "@displayName",
                        "start": "effectiveDate",
                        "end": "expirationDate",
                        "static": {
                            "dependency_config": [
                                { "valueKey": "start", "condition": "greaterThanOrEqual", "field_name": "ArrivalDateTime"},
                                { "valueKey": "end", "condition": "lesserThanOrEqual", "field_name": "ArrivalDateTime"}
                            ]
                        }
                    }
                }
            },
            "reference_sheets": {
                "vertical-table": {
                    "calculated_fields": {
                        "parent": "SetPreProcMedToNo",
                        "function": "assign_row_value",
                        "order": "1",
                        "single_parent": true,
                        "func_parameter": "{\"final_path\": \"PreProcMedAdmin\", \"value\": \"112000000168\"}",
                        "aggregation": false,
                        "is_sink": false,
                        "created_identity_id": 1
                    }
                }
            }
        },
        "ProcMedID": {
            "root_element": "list",
            "mapping": {
                "list_element_name": "listMember",
                "col_name": {
                    "code_system_name": "@codeSystemName",
                    "code_system_oid":  "@codeSystem",
                    "code": "@code",
                    "category": "category",
                    "display_name":  "@displayName",
                    "description":  "definition"
                },
                "default_col_data": {
                    "field_ref_conf": {"ref_field": "PROCINFO.index.PCIPROC.SetProcMedToNo", "if_val": null, "action": "enabled"}
                },
                "ref_dynamic_info": {
                    "field_ref_conf": {
                        "code_system_oid": "@codeSystem",
                        "code_system_name": "@codeSystemName",
                        "category": "category",
                        "display_name": "@displayName",
                        "start": "effectiveDate",
                        "end": "expirationDate",
                        "static": {
                            "dependency_config": [
                                { "valueKey":  "start", "condition": "greaterThanOrEqual", "field_name": "ArrivalDateTime"},
                                { "valueKey":  "end", "condition": "lesserThanOrEqual", "field_name": "ArrivalDateTime"}
                            ]
                        }
                    }
                }
            },
            "reference_sheets": {
                "vertical-table": {
                    "calculated_fields": {
                        "parent": "SetProcMedToNo",
                        "function": "assign_row_value",
                        "order": "1",
                        "single_parent": true,
                        "func_parameter": "{\"final_path\": \"ProcMedAdmin\", \"value\": \"100014173\"}",
                        "aggregation": false,
                        "is_sink": false,
                        "created_identity_id": 1
                    }
                }
            }
        },
        "DC_MedID": {
            "root_element": "list",
            "mapping": {
                "list_element_name": "listMember",
                "col_name": {
                    "code_system_name": "@codeSystemName",
                    "code_system_oid":  "@codeSystem",
                    "code": "@code",
                    "category": "category",
                    "display_name":  "@displayName",
                    "description":  "definition"
                },
                "default_col_data": {
                    "field_ref_conf": {"ref_field": "SetDisMedEventToNo", "if_val": null, "action": "enabled"}
                },
                "ref_dynamic_info": {
                    "field_ref_conf": {
                        "code_system_oid": "@codeSystem",
                        "code_system_name": "@codeSystemName",
                        "category": "category",
                        "display_name": "@displayName",
                        "start": "effectiveDate",
                        "end": "expirationDate",
                        "static": {
                            "dependency_config": [
                                { "valueKey":  "start", "condition": "greaterThanOrEqual", "field_name": "ArrivalDateTime"},
                                { "valueKey":  "end", "condition": "lesserThanOrEqual", "field_name": "ArrivalDateTime"}
                            ]
                        }
                    }
                }
            },
            "reference_sheets": {
                "vertical-table": {
                    "calculated_fields": {
                        "parent": "SetDisMedEventToNo",
                        "function": "assign_row_value",
                        "order": "1",
                        "single_parent": true,
                        "func_parameter": "{\"final_path\": \"DC_MedAdmin\", \"value\": \"100001048\"}",
                        "aggregation": false,
                        "is_sink": false,
                        "created_identity_id": 1
                    }
                }
            }
        },
        "F_MedID": {
            "root_element": "list",
            "mapping": {
                "list_element_name": "listMember",
                "col_name": {
                    "code_system_name": "@codeSystemName",
                    "code_system_oid":  "@codeSystem",
                    "code": "@code",
                    "category": "category",
                    "display_name":  "@displayName",
                    "description":  "definition"
                },
                "default_col_data": {
                    "field_ref_conf": {"ref_field": "Follow-upRecord.index.SetFupMedEventToNo", "if_val": null, "action": "enabled"}
                },
                "ref_dynamic_info": {
                    "field_ref_conf": {
                        "code_system_oid": "@codeSystem",
                        "code_system_name": "@codeSystemName",
                        "category": "category",
                        "display_name": "@displayName",
                        "start": "effectiveDate",
                        "end": "expirationDate",
                        "static": {
                            "dependency_config": [
                                { "valueKey":  "start", "condition": "greaterThanOrEqual", "field_name": "ArrivalDateTime"},
                                { "valueKey":  "end", "condition": "lesserThanOrEqual", "field_name": "ArrivalDateTime"}
                            ]
                        }
                    }
                }
            },
            "reference_sheets": {
                "vertical-table": {
                    "calculated_fields": {
                        "parent": "SetFupMedEventToNo",
                        "function": "assign_row_value",
                        "order": "1",
                        "single_parent": true,
                        "func_parameter": "{\"final_path\": \"F_MedAdmin\", \"value\": \"100001048\"}",
                        "aggregation": false,
                        "is_sink": false,
                        "created_identity_id": 1
                    }
                }
            }
        },
        "F_EventCode": {
            "root_element": "list",
            "mapping": {
                "list_element_name": "listMember",
                "col_name": {
                    "code_system_name": "@codeSystemName",
                    "code_system_oid":  "@codeSystem",
                    "code": "@code",
                    "category": "category",
                    "display_name":  "@displayName",
                    "description":  "definition"
                },
                "default_col_data": {
                    "field_ref_conf": {
                        "ref_field": "Follow-upRecord.index.SetEventToNo",
                        "if_val": null,
                        "action": "enabled",
                        "disable_selected": true,
                        "disable_parent_selected": true,
                        "options_parent_dependency": [
                            {
                                "parent_field_path": "Follow-upRecord",
                                "pull_parent_value_from_path": "F_EventCode.{field_name}.F_EventDate",
                                "operation": "merge"
                            }
                        ]
                    },
                    "replace": ["field_name"]
                },
                "ref_dynamic_info": {
                    "field_ref_conf": {
                        "code_system_oid": "@codeSystem",
                        "code_system_name": "@codeSystemName",
                        "category": "category",
                        "display_name": "@displayName",
                        "start": "effectiveDate",
                        "end": "expirationDate",
                        "static": {
                            "dependency_config": [
                                { "valueKey":  "start", "condition": "greaterThanOrEqual", "field_name": "ArrivalDateTime"},
                                { "valueKey":  "end", "condition": "lesserThanOrEqual", "field_name": "ArrivalDateTime"}
                            ]
                        }
                    }
                }
            },
            "reference_sheets": {
                "vertical-table": {
                    "calculated_fields": {
                        "parent": "SetEventToNo",
                        "function": "assign_row_value",
                        "order": "1",
                        "single_parent": true,
                        "func_parameter": "{\"final_path\": \"F_EventOccurred\", \"value\": \"0\"}",
                        "aggregation": false,
                        "is_sink": false,
                        "created_identity_id": 1
                    }
                }
            }
        },
        "PostProcEvent": {
            "root_element": "list",
            "mapping": {
                "list_element_name": "listMember",
                "col_name": {
                    "code_system_name": "@codeSystemName",
                    "code_system_oid":  "@codeSystem",
                    "code": "@code",
                    "category": "category",
                    "display_name":  "@displayName",
                    "description":  "definition"
                },
                "default_col_data": {
                    "field_ref_conf": {
                        "ref_field": "PROCINFO.index.INTPOSTEVENT.SetPostProcEventToNo",
                        "if_val": null,
                        "action": "enabled",
                        "disable_selected": true,
                        "disable_parent_selected": true,
                        "options_parent_dependency": [
                            {
                                "parent_field_path": "PROCINFO",
                                "pull_parent_value_from_path": "INTPOSTEVENT.PostProcEvent.{field_name}.PostProcDateTime",
                                "operation": "merge"
                            }
                        ]
                    },
                    "replace": ["field_name"]
                },
                "ref_dynamic_info": {
                    "field_ref_conf": {
                        "code_system_oid": "@codeSystem",
                        "code_system_name": "@codeSystemName",
                        "category": "category",
                        "display_name": "@displayName",
                        "start": "effectiveDate",
                        "end": "expirationDate",
                        "static": {
                            "dependency_config": [
                                { "valueKey":  "start", "condition": "greaterThanOrEqual", "field_name": "ArrivalDateTime"},
                                { "valueKey":  "end", "condition": "lesserThanOrEqual", "field_name": "ArrivalDateTime"}
                            ]
                        }
                    }
                }
            },
            "reference_sheets": {
                "vertical-table": {
                    "calculated_fields": {
                        "parent": "SetPostProcEventToNo",
                        "function": "assign_row_value",
                        "order": "1",
                        "single_parent": true,
                        "func_parameter": "{\"final_path\": \"PostProcOccurred\", \"value\": \"0\"}",
                        "aggregation": false,
                        "is_sink": false,
                        "created_identity_id": 1
                    }
                }
            }
        }
    },
    "code_system": "?",
    "service_info": {
        "service_url": "https://vendor.ncdr.com/unified/DataDictionaryServices.asmx",
        "root_element": "list",
        "mapping": {
            "list_element_name": "listMember",
            "col_name": {
                "code_system_name": "@codeSystemName",
                "code_system_oid":  "@codeSystem",
                "code": "@code",
                "category": "category",
                "display_name":  "@displayName",
                "description":  "definition",
                "ref_conf": {
                    "col_name": {
                        "start": "effectiveDate",
                        "end": "expirationDate"
                    },
                    "ref_field_name": "ArrivalDateTime" 
                }
            }
        }
    }
}