{
    "registry_program_name": "EPDI",
    "registry_program_version": "v2.3",
    "dynamic_fields": {
        "SDM_Tool_Name": {
            "mapping": {
                "list_element_name": "listMember",
                "col_name": {
                    "code_system_oid": "@codeSystem",
                    "code_system_name": "@codeSystemName",
                    "code": "@code",
                    "category": "category",
                    "display_name": "@displayName",
                    "description":  "definition",
                    "ref_conf": {
                        "col_name": {
                            "start": "effectiveDate",
                            "end": "expirationDate"
                        },
                        "ref_field_name": "ArrivalDate"
                    }
                }
            }
        },
        "ICDImpID": {
            "mapping": {
                "list_element_name": "listMember",
                "col_name": {
                    "code_system_name": "@codeSystemName",
                    "code_system_oid":  "@codeSystem",
                    "code": "@code",
                    "category": "category",
                    "display_name":  "@displayName",
                    "description":  "definition",
                    "new_display_name": {
                        "names": ["deviceManufacturer", "@displayName", "modelNumber"],
                        "display_format": "%s - %s - %s"
                    },
                    "ref_conf": {
                        "col_name": {
                            "start": "effectiveDate",
                            "end": "expirationDate"
                        },
                        "ref_field_name": "ArrivalDate"
                    }
                }
            }
        },
        "ICDExpID": {
            "mapping": {
                "list_element_name": "listMember",
                "col_name": {
                    "code_system_name": "@codeSystemName",
                    "code_system_oid":  "@codeSystem",
                    "code": "@code",
                    "category": "category",
                    "display_name":  "@displayName",
                    "description":  "definition",
                    "new_display_name": {
                        "names": ["deviceManufacturer", "@displayName", "modelNumber"],
                        "display_format": "%s - %s - %s"
                    },
                    "ref_conf": {
                        "col_name": {
                            "start": "effectiveDate",
                            "end": "expirationDate"
                        },
                        "ref_field_name": "ArrivalDate"
                    }
                }
            }
        },
        "LeadID": {
            "mapping": {
                "list_element_name": "listMember",
                "col_name": {
                    "code_system_name": "@codeSystemName",
                    "code_system_oid":  "@codeSystem",
                    "code": "@code",
                    "category": "category",
                    "display_name":  "@displayName",
                    "description":  "definition",
                    "new_display_name": {
                        "names": ["deviceManufacturer", "@displayName", "modelNumber"],
                        "display_format": "%s - %s - %s"
                    },
                    "ref_conf": {
                        "col_name": {
                            "start": "effectiveDate",
                            "end": "expirationDate"
                        },
                        "ref_field_name": "ArrivalDate"
                    }
                }
            }
        },
        "DC_MedID": {
            "mapping": {
                "list_element_name": "listMember",
                "col_name": {
                    "code_system_name": "@codeSystemName",
                    "code_system_oid":  "@codeSystem",
                    "code": "@code",
                    "category": "category",
                    "display_name":  "@displayName",
                    "description":  "definition",
                    "ref_conf": {
                        "col_name": {
                            "start": "effectiveDate",
                            "end": "expirationDate"
                        },
                        "ref_field_name": "ArrivalDate"
                    }
                }
            }

        }
    },
    "code_system": "?",
    "service_info": {
        "service_url": "https://vendor.ncdr.com/unified/DataDictionaryServices.asmx",
        "root_element": "list"
    }
}